{
    "key": "group_624ec1e354b78",
    "title": "Theme Buttons",
    "fields": [
        {
            "key": "field_624ec1e363045",
            "label": "Block Content",
            "name": "",
            "aria-label": "",
            "type": "tab",
            "instructions": "",
            "required": 0,
            "conditional_logic": 0,
            "wrapper": {
                "width": "",
                "class": "",
                "id": ""
            },
            "placement": "top",
            "endpoint": 0
        },
        {
            "key": "field_624ef6406e5fa",
            "label": "Buttons Gap",
            "name": "buttons_gap",
            "aria-label": "",
            "type": "group",
            "instructions": "",
            "required": 0,
            "conditional_logic": 0,
            "wrapper": {
                "width": "",
                "class": "",
                "id": ""
            },
            "layout": "block",
            "sub_fields": [
                {
                    "key": "field_624ef6a4c0108",
                    "label": "Column",
                    "name": "column",
                    "aria-label": "",
                    "type": "number",
                    "instructions": "",
                    "required": 0,
                    "conditional_logic": 0,
                    "wrapper": {
                        "width": "50",
                        "class": "",
                        "id": ""
                    },
                    "default_value": "",
                    "min": "",
                    "max": "",
                    "placeholder": "",
                    "step": "",
                    "prepend": "",
                    "append": "px"
                },
                {
                    "key": "field_624ef6b0c0109",
                    "label": "Row",
                    "name": "row",
                    "aria-label": "",
                    "type": "number",
                    "instructions": "",
                    "required": 0,
                    "conditional_logic": 0,
                    "wrapper": {
                        "width": "50",
                        "class": "",
                        "id": ""
                    },
                    "default_value": "",
                    "min": "",
                    "max": "",
                    "placeholder": "",
                    "step": "",
                    "prepend": "",
                    "append": "px"
                }
            ],
            "acfe_seamless_style": 0,
            "acfe_group_modal": 0,
            "acfe_group_modal_close": 0,
            "acfe_group_modal_button": "",
            "acfe_group_modal_size": "large"
        },
        {
            "key": "field_62bb4ea79a117",
            "label": "Alignment",
            "name": "alignment",
            "aria-label": "",
            "type": "group",
            "instructions": "",
            "required": 0,
            "conditional_logic": 0,
            "wrapper": {
                "width": "",
                "class": "",
                "id": ""
            },
            "layout": "block",
            "sub_fields": [
                {
                    "key": "field_62bb4eb49a118",
                    "label": "Alignment",
                    "name": "alignment",
                    "aria-label": "",
                    "type": "radio",
                    "instructions": "",
                    "required": 0,
                    "conditional_logic": 0,
                    "wrapper": {
                        "width": "",
                        "class": "",
                        "id": ""
                    },
                    "choices": {
                        "flex-start": "Left",
                        "center": "Center",
                        "flex-end": "Right"
                    },
                    "allow_null": 1,
                    "other_choice": 0,
                    "default_value": "",
                    "layout": "horizontal",
                    "return_format": "value",
                    "save_other_choice": 0
                }
            ],
            "acfe_seamless_style": 0,
            "acfe_group_modal": 0,
            "acfe_group_modal_close": 0,
            "acfe_group_modal_button": "",
            "acfe_group_modal_size": "large"
        },
        {
            "key": "field_624ec7ead0622",
            "label": "Theme Buttons",
            "name": "theme_buttons",
            "aria-label": "",
            "type": "repeater",
            "instructions": "",
            "required": 0,
            "conditional_logic": 0,
            "wrapper": {
                "width": "",
                "class": "",
                "id": ""
            },
            "collapsed": "",
            "min": 0,
            "max": 0,
            "layout": "block",
            "button_label": "Add CTA",
            "rows_per_page": 20,
            "acfe_repeater_stylised_button": 0,
            "sub_fields": [
                {
                    "key": "field_624ec7f9d0623",
                    "label": "CTA",
                    "name": "",
                    "aria-label": "",
                    "type": "accordion",
                    "instructions": "",
                    "required": 0,
                    "conditional_logic": 0,
                    "wrapper": {
                        "width": "",
                        "class": "",
                        "id": ""
                    },
                    "open": 0,
                    "multi_expand": 0,
                    "endpoint": 0,
                    "parent_repeater": "field_624ec7ead0622"
                },
                {
                    "key": "field_624eca4e7bef4",
                    "label": "Custom Button?",
                    "name": "custom_button",
                    "aria-label": "",
                    "type": "true_false",
                    "instructions": "",
                    "required": 0,
                    "conditional_logic": 0,
                    "wrapper": {
                        "width": "",
                        "class": "",
                        "id": ""
                    },
                    "message": "",
                    "default_value": 0,
                    "ui": 1,
                    "ui_on_text": "",
                    "ui_off_text": "",
                    "parent_repeater": "field_624ec7ead0622"
                },
                {
                    "key": "field_624ec21fbd3d1",
                    "label": "Buttons Themes",
                    "name": "buttons_themes",
                    "aria-label": "",
                    "type": "radio",
                    "instructions": "",
                    "required": 0,
                    "conditional_logic": [
                        [
                            {
                                "field": "field_624eca4e7bef4",
                                "operator": "!=",
                                "value": "1"
                            }
                        ]
                    ],
                    "wrapper": {
                        "width": "",
                        "class": "acf-image-select acf-image-select-custom",
                        "id": ""
                    },
                    "choices": {
                        "button-1": "<img src=\"\/wp-content\/themes\/digihive_theme\/blocks\/theme_buttons\/acf-images\/btn-1.png\"\/>",
                        "button-2": "<img src=\"\/wp-content\/themes\/digihive_theme\/blocks\/theme_buttons\/acf-images\/btn-2.png\"\/>",
                        "button-3": "<img src=\"\/wp-content\/themes\/digihive_theme\/blocks\/theme_buttons\/acf-images\/btn-3.png\"\/>"
                    },
                    "default_value": "",
                    "return_format": "value",
                    "allow_null": 0,
                    "other_choice": 0,
                    "layout": "horizontal",
                    "save_other_choice": 0,
                    "parent_repeater": "field_624ec7ead0622"
                },
                {
                    "key": "field_624ec85c41e31",
                    "label": "CTA URL",
                    "name": "cta_url",
                    "aria-label": "",
                    "type": "url",
                    "instructions": "",
                    "required": 0,
                    "conditional_logic": 0,
                    "wrapper": {
                        "width": "33.33",
                        "class": "",
                        "id": ""
                    },
                    "default_value": "",
                    "placeholder": "",
                    "parent_repeater": "field_624ec7ead0622"
                },
                {
                    "key": "field_624ec86941e32",
                    "label": "CTA Text",
                    "name": "cta_text",
                    "aria-label": "",
                    "type": "text",
                    "instructions": "",
                    "required": 0,
                    "conditional_logic": 0,
                    "wrapper": {
                        "width": "33.33",
                        "class": "",
                        "id": ""
                    },
                    "default_value": "",
                    "placeholder": "",
                    "prepend": "",
                    "append": "",
                    "maxlength": "",
                    "parent_repeater": "field_624ec7ead0622"
                },
                {
                    "key": "field_624ec87241e33",
                    "label": "CTA Target",
                    "name": "cta_target",
                    "aria-label": "",
                    "type": "radio",
                    "instructions": "",
                    "required": 0,
                    "conditional_logic": 0,
                    "wrapper": {
                        "width": "33.33",
                        "class": "",
                        "id": ""
                    },
                    "choices": {
                        "_self": "Same",
                        "_blank": "New"
                    },
                    "allow_null": 0,
                    "other_choice": 0,
                    "default_value": "",
                    "layout": "horizontal",
                    "return_format": "value",
                    "save_other_choice": 0,
                    "parent_repeater": "field_624ec7ead0622"
                },
                {
                    "key": "field_624ec9a1abcfe",
                    "label": "Margins",
                    "name": "margins",
                    "aria-label": "",
                    "type": "group",
                    "instructions": "",
                    "required": 0,
                    "conditional_logic": 0,
                    "wrapper": {
                        "width": "",
                        "class": "",
                        "id": ""
                    },
                    "layout": "block",
                    "parent_repeater": "field_624ec7ead0622",
                    "sub_fields": [
                        {
                            "key": "field_624ec9b5abcff",
                            "label": "Top",
                            "name": "top",
                            "aria-label": "",
                            "type": "number",
                            "instructions": "",
                            "required": 0,
                            "conditional_logic": 0,
                            "wrapper": {
                                "width": "50",
                                "class": "",
                                "id": ""
                            },
                            "default_value": "",
                            "min": "",
                            "max": "",
                            "placeholder": "",
                            "step": "",
                            "prepend": "",
                            "append": "px"
                        },
                        {
                            "key": "field_624ec9bdabd00",
                            "label": "Bottom",
                            "name": "bottom",
                            "aria-label": "",
                            "type": "number",
                            "instructions": "",
                            "required": 0,
                            "conditional_logic": 0,
                            "wrapper": {
                                "width": "50",
                                "class": "",
                                "id": ""
                            },
                            "default_value": "",
                            "min": "",
                            "max": "",
                            "placeholder": "",
                            "step": "",
                            "prepend": "",
                            "append": "px"
                        }
                    ],
                    "acfe_seamless_style": 0,
                    "acfe_group_modal": 0,
                    "acfe_group_modal_close": 0,
                    "acfe_group_modal_button": "",
                    "acfe_group_modal_size": "large"
                },
                {
                    "key": "field_624edfcf0ceed",
                    "label": "Styles",
                    "name": "",
                    "aria-label": "",
                    "type": "tab",
                    "instructions": "",
                    "required": 0,
                    "conditional_logic": [
                        [
                            {
                                "field": "field_624eca4e7bef4",
                                "operator": "==",
                                "value": "1"
                            }
                        ]
                    ],
                    "wrapper": {
                        "width": "",
                        "class": "",
                        "id": ""
                    },
                    "placement": "top",
                    "endpoint": 0,
                    "parent_repeater": "field_624ec7ead0622"
                },
                {
                    "key": "field_624ee0100ceee",
                    "label": "Styles",
                    "name": "styles",
                    "aria-label": "",
                    "type": "radio",
                    "instructions": "",
                    "required": 0,
                    "conditional_logic": 0,
                    "wrapper": {
                        "width": "50",
                        "class": "acf-image-select acf-custom-buttons",
                        "id": ""
                    },
                    "choices": {
                        "outline": "<b>Outline <\/b><img src=\"\/wp-content\/themes\/digihive_theme\/blocks\/theme_buttons\/acf-images\/btn-outline.png\"\/>",
                        "fill": "<b>Fill<\/b> <img src=\"\/wp-content\/themes\/digihive_theme\/blocks\/theme_buttons\/acf-images\/btn-fill.png\"\/>"
                    },
                    "default_value": "",
                    "return_format": "value",
                    "allow_null": 0,
                    "other_choice": 0,
                    "layout": "horizontal",
                    "save_other_choice": 0,
                    "parent_repeater": "field_624ec7ead0622"
                },
                {
                    "key": "field_624ee457e3d19",
                    "label": "Typography",
                    "name": "",
                    "aria-label": "",
                    "type": "tab",
                    "instructions": "",
                    "required": 0,
                    "conditional_logic": [
                        [
                            {
                                "field": "field_624eca4e7bef4",
                                "operator": "==",
                                "value": "1"
                            }
                        ]
                    ],
                    "wrapper": {
                        "width": "",
                        "class": "",
                        "id": ""
                    },
                    "placement": "top",
                    "endpoint": 0,
                    "parent_repeater": "field_624ec7ead0622"
                },
                {
                    "key": "field_624ee45be3d1a",
                    "label": "Font Size",
                    "name": "font_size",
                    "aria-label": "",
                    "type": "number",
                    "instructions": "",
                    "required": 0,
                    "conditional_logic": 0,
                    "wrapper": {
                        "width": "",
                        "class": "",
                        "id": ""
                    },
                    "default_value": "",
                    "min": "",
                    "max": 5,
                    "placeholder": "",
                    "step": "",
                    "prepend": "",
                    "append": "px",
                    "parent_repeater": "field_624ec7ead0622"
                },
                {
                    "key": "field_624ecb9751560",
                    "label": "Color",
                    "name": "",
                    "aria-label": "",
                    "type": "tab",
                    "instructions": "",
                    "required": 0,
                    "conditional_logic": [
                        [
                            {
                                "field": "field_624eca4e7bef4",
                                "operator": "==",
                                "value": "1"
                            }
                        ]
                    ],
                    "wrapper": {
                        "width": "",
                        "class": "",
                        "id": ""
                    },
                    "placement": "top",
                    "endpoint": 0,
                    "parent_repeater": "field_624ec7ead0622"
                },
                {
                    "key": "field_624ecb9f51561",
                    "label": "Text Color",
                    "name": "text_color",
                    "aria-label": "",
                    "type": "color_picker",
                    "instructions": "",
                    "required": 0,
                    "conditional_logic": 0,
                    "wrapper": {
                        "width": "50",
                        "class": "",
                        "id": ""
                    },
                    "default_value": "",
                    "enable_opacity": 1,
                    "return_format": "string",
                    "parent_repeater": "field_624ec7ead0622"
                },
                {
                    "key": "field_624ecbc651562",
                    "label": "Background Color",
                    "name": "background_color",
                    "aria-label": "",
                    "type": "color_picker",
                    "instructions": "",
                    "required": 0,
                    "conditional_logic": 0,
                    "wrapper": {
                        "width": "50",
                        "class": "",
                        "id": ""
                    },
                    "default_value": "",
                    "enable_opacity": 1,
                    "return_format": "string",
                    "parent_repeater": "field_624ec7ead0622"
                },
                {
                    "key": "field_624ecc7c51565",
                    "label": "Border Settings",
                    "name": "",
                    "aria-label": "",
                    "type": "tab",
                    "instructions": "",
                    "required": 0,
                    "conditional_logic": [
                        [
                            {
                                "field": "field_624eca4e7bef4",
                                "operator": "==",
                                "value": "1"
                            }
                        ]
                    ],
                    "wrapper": {
                        "width": "",
                        "class": "",
                        "id": ""
                    },
                    "placement": "top",
                    "endpoint": 0,
                    "parent_repeater": "field_624ec7ead0622"
                },
                {
                    "key": "field_624ecc8b51566",
                    "label": "Border Radius",
                    "name": "border_radius",
                    "aria-label": "",
                    "type": "range",
                    "instructions": "",
                    "required": 0,
                    "conditional_logic": 0,
                    "wrapper": {
                        "width": "",
                        "class": "",
                        "id": ""
                    },
                    "default_value": 10,
                    "min": "",
                    "max": 50,
                    "step": "",
                    "prepend": "",
                    "append": "px",
                    "parent_repeater": "field_624ec7ead0622"
                },
                {
                    "key": "field_624ecc0251563",
                    "label": "Width  Settings",
                    "name": "",
                    "aria-label": "",
                    "type": "tab",
                    "instructions": "",
                    "required": 0,
                    "conditional_logic": [
                        [
                            {
                                "field": "field_624eca4e7bef4",
                                "operator": "==",
                                "value": "1"
                            }
                        ]
                    ],
                    "wrapper": {
                        "width": "",
                        "class": "",
                        "id": ""
                    },
                    "placement": "top",
                    "endpoint": 0,
                    "parent_repeater": "field_624ec7ead0622"
                },
                {
                    "key": "field_624ecc0851564",
                    "label": "Width Settings",
                    "name": "width_settings",
                    "aria-label": "",
                    "type": "radio",
                    "instructions": "",
                    "required": 0,
                    "conditional_logic": 0,
                    "wrapper": {
                        "width": "",
                        "class": "radion-buttons",
                        "id": ""
                    },
                    "choices": {
                        "25%": "25%",
                        "50%": "50%",
                        "70%": "70%",
                        "100%": "100%"
                    },
                    "allow_null": 1,
                    "other_choice": 0,
                    "default_value": "",
                    "layout": "horizontal",
                    "return_format": "value",
                    "save_other_choice": 0,
                    "parent_repeater": "field_624ec7ead0622"
                },
                {
                    "key": "field_624ee9995ae59",
                    "label": "Options",
                    "name": "",
                    "aria-label": "",
                    "type": "tab",
                    "instructions": "",
                    "required": 0,
                    "conditional_logic": [
                        [
                            {
                                "field": "field_624eca4e7bef4",
                                "operator": "==",
                                "value": "1"
                            }
                        ]
                    ],
                    "wrapper": {
                        "width": "",
                        "class": "",
                        "id": ""
                    },
                    "placement": "top",
                    "endpoint": 0,
                    "parent_repeater": "field_624ec7ead0622"
                },
                {
                    "key": "field_624ee9a05ae5a",
                    "label": "Has Arrow?",
                    "name": "has_arrow",
                    "aria-label": "",
                    "type": "true_false",
                    "instructions": "",
                    "required": 0,
                    "conditional_logic": 0,
                    "wrapper": {
                        "width": "",
                        "class": "",
                        "id": ""
                    },
                    "message": "",
                    "default_value": 0,
                    "ui": 1,
                    "ui_on_text": "",
                    "ui_off_text": "",
                    "parent_repeater": "field_624ec7ead0622"
                }
            ]
        }
    ],
    "location": [
        [
            {
                "param": "block",
                "operator": "==",
                "value": "acf\/theme-buttons"
            }
        ]
    ],
    "menu_order": 0,
    "position": "acf_after_title",
    "style": "default",
    "label_placement": "top",
    "instruction_placement": "label",
    "hide_on_screen": "",
    "active": true,
    "description": "",
    "show_in_rest": 0,
    "acfe_display_title": "",
    "acfe_autosync": [
        "json"
    ],
    "acfe_form": 0,
    "acfe_meta": "",
    "acfe_note": "",
    "modified": 1671980926
}